// Jest Snapshot v1, https://goo.gl/fbAQLP

exports[`docs/rules/attr-case.md inline validation: correct 1`] = `Array []`;

exports[`docs/rules/attr-case.md inline validation: incorrect 1`] = `
Array [
  Object {
    "errorCount": 1,
    "filePath": "inline",
    "messages": Array [
      Object {
        "column": 4,
        "context": undefined,
        "line": 1,
        "message": "Attribute \\"ID\\" should be lowercase",
        "offset": 3,
        "ruleId": "attr-case",
        "severity": 2,
        "size": 2,
      },
    ],
    "source": "<p ID=\\"foo\\"></p>",
    "warningCount": 0,
  },
]
`;

exports[`docs/rules/attr-case.md inline validation: svg-viewbox 1`] = `Array []`;
