// Jest Snapshot v1, https://goo.gl/fbAQLP

exports[`docs/rules/wcag/h36.md inline validation: correct 1`] = `Array []`;

exports[`docs/rules/wcag/h36.md inline validation: incorrect 1`] = `Array []`;
